3.Part2.utf8
…
When comparing the two age plots side by side, it is clear that there are differences in the distribution of the ages between the two groups of counties. When looking at the non-Whole Foods counties, the only time a group reaches 10% of the voting age population is for group 5. However, when looking at the Whole Foods counties, group 5 is below 10%, while groups 6 through 8 are over 10%. This suggests that the Whole Foods generally have a higher percentage of young people than the non Whole Foods counties.

New Part: What was correlated with Election Day Turnout

## # A tibble: 253 x 2
##    COUNTY      election_day_votes
##    <chr>                    <int>
##  1 ""                       13264
##  2 "ANDERSON"                4694
##  3 "ANDREWS"                 1079
##  4 "ANGELINA"                5963
##  5 "ARANSAS"                 1266
##  6 "ARCHER"                  1176
##  7 "ARMSTRONG"                266
##  8 "ATASCOSA"                3294
##  9 "AUSTIN"                  3026
## 10 "BAILEY"                   575
## #  with 243 more rows
